<?xml version="1.0" encoding="UTF-8" standalone="no"?>
<!-- Created with Inkscape (http://www.inkscape.org/) -->

<svg
   xmlns:dc="http://purl.org/dc/elements/1.1/"
   xmlns:cc="http://creativecommons.org/ns#"
   xmlns:rdf="http://www.w3.org/1999/02/22-rdf-syntax-ns#"
   xmlns:svg="http://www.w3.org/2000/svg"
   xmlns="http://www.w3.org/2000/svg"
   xmlns:sodipodi="http://sodipodi.sourceforge.net/DTD/sodipodi-0.dtd"
   xmlns:inkscape="http://www.inkscape.org/namespaces/inkscape"
   width="48"
   height="48"
   viewBox="0 0 12.7 12.7"
   version="1.1"
   id="svg827"
   sodipodi:docname="ic_cast.svg"
   inkscape:version="0.92.3 (2405546, 2018-03-11)">
  <defs
     id="defs821" />
  <sodipodi:namedview
     id="base"
     pagecolor="#ffffff"
     bordercolor="#666666"
     borderopacity="1.0"
     inkscape:pageopacity="0.0"
     inkscape:pageshadow="2"
     inkscape:zoom="11.313709"
     inkscape:cx="5.9322777"
     inkscape:cy="20.807411"
     inkscape:document-units="mm"
     inkscape:current-layer="layer3"
     showgrid="false"
     units="px"
     inkscape:pagecheckerboard="false"
     inkscape:window-width="1920"
     inkscape:window-height="1043"
     inkscape:window-x="0"
     inkscape:window-y="0"
     inkscape:window-maximized="1" />
  <metadata
     id="metadata824">
    <rdf:RDF>
      <cc:Work
         rdf:about="">
        <dc:format>image/svg+xml</dc:format>
        <dc:type
           rdf:resource="http://purl.org/dc/dcmitype/StillImage" />
        <dc:title />
        <dc:creator>
          <cc:Agent>
            <dc:title>Jérôme Hencky</dc:title>
          </cc:Agent>
        </dc:creator>
      </cc:Work>
    </rdf:RDF>
  </metadata>
  <g
     inkscape:groupmode="layer"
     id="layer3"
     inkscape:label="Circle Shadow">
    <circle
       style="opacity:1;fill:#b2b2b2;fill-opacity:1;stroke-width:0.26056686"
       id="path1372-3"
       cx="6.3499999"
       cy="6.3499999"
       r="6.1303015" />
  </g>
  <g
     inkscape:label="Circle"
     inkscape:groupmode="layer"
     id="layer1"
     transform="translate(0,-284.29998)">
    <ellipse
       style="opacity:1;fill:#26c6da;fill-opacity:1;stroke-width:0.25824898"
       id="path1372"
       cx="6.3499999"
       cy="290.54141"
       rx="6.1303015"
       ry="6.0217233" />
  </g>
  <g
     inkscape:groupmode="layer"
     id="layer4"
     inkscape:label="Icon Shadow">
    <path
       style="opacity:0.1;fill:#000000;fill-opacity:1;fill-rule:evenodd;stroke:none;stroke-width:0.03764152;stroke-linecap:butt;stroke-linejoin:miter;stroke-miterlimit:4;stroke-dasharray:none;stroke-opacity:1"
       d="M 13.033203 15.177734 L 12.259766 16.519531 L 12.3125 33.542969 L 25.009766 46.314453 A 23.169643 22.759269 0 0 0 46.892578 26.908203 L 35.179688 15.177734 L 13.033203 15.177734 z "
       id="path2218"
       transform="scale(0.26458333)" />
  </g>
  <g
     inkscape:groupmode="layer"
     id="layer2"
     inkscape:label="Icon">
    <path
       style="stroke-width:0.28111976;fill:#37474f;fill-opacity:1"
       inkscape:connector-curvature="0"
       d="M 8.8800777,3.8199218 H 3.8199219 c -0.3092318,0 -0.5622396,0.2530078 -0.5622396,0.5622396 V 5.2255207 H 3.8199219 V 4.3821614 H 8.8800777 V 8.3178385 H 6.9122394 v 0.5622396 h 1.9678383 c 0.309233,0 0.56224,-0.2530078 0.56224,-0.5622396 V 4.3821614 c 0,-0.3092318 -0.253007,-0.5622396 -0.56224,-0.5622396 z M 3.2576823,8.0367187 v 0.8433594 h 0.8433594 c 0,-0.4666589 -0.3767006,-0.8433594 -0.8433594,-0.8433594 z m 0,-1.1244792 v 0.5622396 c 0.7758906,0 1.4055989,0.6297084 1.4055989,1.405599 h 0.5622397 c 0,-1.0879336 -0.879905,-1.9678386 -1.9678386,-1.9678386 z m 0,-1.1244791 v 0.5622395 c 1.3971653,0 2.5300781,1.1329128 2.5300781,2.5300782 H 6.35 C 6.35,7.1708697 4.9640794,5.7877604 3.2576823,5.7877604 Z"
       id="path6" />
  </g>
</svg>
